[[local|localrc]]
HOST_IP=10.0.20.21
FLOATING_RANGE=10.0.20.128/25

FIXED_RANGE=10.0.80.0/24

LOGFILE=/opt/stack/logs/stack.sh.log
ADMIN_PASSWORD=labstack
DATABASE_PASSWORD=supersecret
RABBIT_PASSWORD=supersecret
SERVICE_PASSWORD=supersecret

VOLUME_BACKING_FILE_SIZE=10G

MULTI_HOST=TRUE
